<svg width="10" height="7" viewBox="0 0 10 7" fill="none" xmlns="http://www.w3.org/2000/svg">
<path d="M8.74189 3.90339H0.380082C0.170276 3.90339 0 3.72247 0 3.49955C0 3.27662 0.170276 3.0957 0.380082 3.0957H8.74189C8.95169 3.0957 9.12197 3.27662 9.12197 3.49955C9.12197 3.72247 8.95169 3.90339 8.74189 3.90339Z" fill="#0066ff"/>
<path d="M8.74189 0.807687H0.380082C0.170276 0.807687 0 0.626766 0 0.403844C0 0.180921 0.170276 0 0.380082 0H8.74189C8.95169 0 9.12197 0.180921 9.12197 0.403844C9.12197 0.626766 8.95169 0.807687 8.74189 0.807687Z" fill="#0066ff"/>
<path d="M8.74189 7.00007H0.380082C0.170276 7.00007 0 6.81915 0 6.59623C0 6.3733 0.170276 6.19238 0.380082 6.19238H8.74189C8.95169 6.19238 9.12197 6.3733 9.12197 6.59623C9.12197 6.81915 8.95169 7.00007 8.74189 7.00007Z" fill="#0066ff"/>
</svg>
